rvTest/rvTest.sim/sim_1/behav/xsim/miniRV_cpu.vcd
$date
   Sun Jan 18 19:15:40 2026
$end
$version
  2017.4
$end
$timescale
  1ps
$end
$scope module miniRV_sim $end
$var reg 1 ! cpu_clk $end
$var reg 1 " cpu_rst $end
$var reg 1 # irq_pending $end
$var reg 1 $ cp0_exl $end
$var reg 32 % cp0_epc [31:0] $end
$var reg 32 & cp0_vector [31:0] $end
$var wire 1 ' cp0_exception_valid $end
$var wire 32 ( cp0_exception_pc [31:0] $end
$var wire 32 ) cp0_exception_code [31:0] $end
$var wire 1 * cp0_eret $end
$var wire 14 + inst_addr [13:0] $end
$var wire 32 , inst_from_irom [31:0] $end
$var wire 12 - inst_addr_dram [11:0] $end
$var wire 32 . inst_from_dram [31:0] $end
$var wire 1 / inst_from_dram_sel $end
$var wire 32 0 Bus_addr [31:0] $end
$var wire 32 1 Bus_rdata [31:0] $end
$var wire 1 2 Bus_we $end
$var wire 32 3 Bus_wdata [31:0] $end
$var integer 32 4 i $end
$var wire 14 5 dram_word_addr [13:0] $end
$var parameter 0 6 IROM_DEPTH $end
$var parameter 0 7 PRAM_DEPTH $end
$var parameter 0 8 DRAM_DEPTH $end
$scope module uut $end
$var wire 1 9 cpu_rst $end
$var wire 1 : cpu_clk $end
$var wire 1 ; irq_pending $end
$var wire 1 < cp0_exl $end
$var wire 32 = cp0_epc [31:0] $end
$var wire 32 > cp0_vector [31:0] $end
$var wire 1 ' cp0_exception_valid $end
$var wire 32 ( cp0_exception_pc [31:0] $end
$var wire 32 ) cp0_exception_code [31:0] $end
$var wire 1 * cp0_eret $end
$var wire 14 + inst_addr [13:0] $end
$var wire 32 , inst_from_irom [31:0] $end
$var wire 12 - inst_addr_dram [11:0] $end
$var wire 32 . inst_from_dram [31:0] $end
$var wire 1 / inst_from_dram_sel $end
$var wire 32 0 Bus_addr [31:0] $end
$var wire 32 1 Bus_rdata [31:0] $end
$var wire 1 2 Bus_we $end
$var wire 32 3 Bus_wdata [31:0] $end
$var wire 32 ? pc [31:0] $end
$var wire 32 @ npc [31:0] $end
$var wire 32 A pc4 [31:0] $end
$var wire 32 B ID_inst [31:0] $end
$var wire 32 C ID_pc4 [31:0] $end
$var wire 3 D npc_op [2:0] $end
$var wire 1 E rf_we $end
$var wire 3 F rf_wsel [2:0] $end
$var wire 3 G sext_op [2:0] $end
$var wire 3 H alub_sel [2:0] $end
$var wire 1 I dram_we $end
$var wire 4 J alu_op [3:0] $end
$var wire 2 K rf_re [1:0] $end
$var wire 1 L ID_illegal $end
$var wire 1 M ID_mret $end
$var wire 32 N ext [31:0] $end
$var wire 32 O rD1 [31:0] $end
$var wire 32 P rD2 [31:0] $end
$var wire 32 Q wD [31:0] $end
$var wire 3 R EX_npc_op [2:0] $end
$var wire 1 S EX_ram_we $end
$var wire 4 T EX_alu_op [3:0] $end
$var wire 3 U EX_alub_sel [2:0] $end
$var wire 1 V EX_rf_we $end
$var wire 3 W EX_rf_wsel [2:0] $end
$var wire 5 X EX_wR [4:0] $end
$var wire 32 Y EX_pc4 [31:0] $end
$var wire 32 Z EX_rD1 [31:0] $end
$var wire 32 [ EX_rD2 [31:0] $end
$var wire 32 \ EX_ext [31:0] $end
$var wire 1 ] EX_illegal $end
$var wire 1 ^ EX_mret $end
$var wire 32 _ alu_c [31:0] $end
$var wire 2 ` alu_f [1:0] $end
$var wire 1 a MEM_ram_we $end
$var wire 1 b MEM_rf_we $end
$var wire 3 c MEM_rf_wsel [2:0] $end
$var wire 5 d MEM_wR [4:0] $end
$var wire 32 e MEM_pc4 [31:0] $end
$var wire 32 f MEM_alu_c [31:0] $end
$var wire 32 g MEM_rD2 [31:0] $end
$var wire 32 h MEM_ext [31:0] $end
$var wire 32 i rd [31:0] $end
$var wire 1 j WB_rf_we $end
$var wire 3 k WB_rf_wsel [2:0] $end
$var wire 5 l WB_wR [4:0] $end
$var wire 32 m WB_pc4 [31:0] $end
$var wire 32 n WB_alu_c [31:0] $end
$var wire 32 o WB_rd [31:0] $end
$var wire 32 p WB_ext [31:0] $end
$var wire 32 q new_rD1 [31:0] $end
$var wire 32 r new_rD2 [31:0] $end
$var wire 1 s data_hazard $end
$var wire 1 t control_hazard_raw $end
$var wire 1 u control_hazard $end
$var wire 1 v trap_illegal $end
$var wire 1 w trap_irq $end
$var wire 1 x trap_taken $end
$var wire 32 y trap_pc [31:0] $end
$var wire 32 z trap_code [31:0] $end
$var wire 32 { inst [31:0] $end
$scope module PC_0 $end
$var wire 1 9 rst $end
$var wire 1 : clk $end
$var wire 32 @ din [31:0] $end
$var wire 1 s data_hazard $end
$var wire 1 u control_hazard $end
$var reg 32 | pc [31:0] $end
$upscope $end
$scope module NPC_0 $end
$var wire 3 R op [2:0] $end
$var wire 2 ` br [1:0] $end
$var wire 32 \ offset [31:0] $end
$var wire 32 _ rs_imm [31:0] $end
$var wire 1 x trap_taken $end
$var wire 32 > trap_vector [31:0] $end
$var wire 1 ^ eret $end
$var wire 32 = epc [31:0] $end
$var wire 32 ? pc [31:0] $end
$var wire 32 A pc4 [31:0] $end
$var reg 32 } npc [31:0] $end
$upscope $end
$scope module U_IF_ID $end
$var wire 1 : clk $end
$var wire 1 9 rst $end
$var wire 32 { IF_inst [31:0] $end
$var wire 32 A IF_pc4 [31:0] $end
$var wire 1 s data_hazard $end
$var wire 1 u control_hazard $end
$var reg 32 ~ ID_inst [31:0] $end
$var reg 32 !! ID_pc4 [31:0] $end
$upscope $end
$scope module CU $end
$var wire 7 "! opcode [6:0] $end
$var wire 7 #! funct7 [6:0] $end
$var wire 3 $! funct3 [2:0] $end
$var wire 5 %! rs2 [4:0] $end
$var wire 3 D npc_op [2:0] $end
$var wire 3 F rf_wsel [2:0] $end
$var wire 1 E rf_we $end
$var wire 4 J alu_op [3:0] $end
$var wire 3 H alub_sel [2:0] $end
$var wire 3 G sext_op [2:0] $end
$var wire 1 I ram_we $end
$var wire 2 K rf_re [1:0] $end
$var wire 1 L illegal_inst $end
$var wire 1 M is_mret $end
$var wire 1 &! r_typ $end
$var wire 1 '! b_typ $end
$var wire 1 (! i_typ $end
$var wire 1 )! s_typ $end
$var wire 1 *! inst_add $end
$var wire 1 +! inst_sub $end
$var wire 1 ,! inst_and $end
$var wire 1 -! inst_or $end
$var wire 1 .! inst_xor $end
$var wire 1 /! inst_sll $end
$var wire 1 0! inst_srl $end
$var wire 1 1! inst_sra $end
$var wire 1 2! inst_mul $end
$var wire 1 3! inst_mulh $end
$var wire 1 4! inst_mulhsu $end
$var wire 1 5! inst_mulhu $end
$var wire 1 6! inst_div $end
$var wire 1 7! inst_divu $end
$var wire 1 8! inst_rem $end
$var wire 1 9! inst_remu $end
$var wire 1 :! inst_addi $end
$var wire 1 ;! inst_andi $end
$var wire 1 <! inst_ori $end
$var wire 1 =! inst_xori $end
$var wire 1 >! inst_slli $end
$var wire 1 ?! inst_srli $end
$var wire 1 @! inst_srai $end
$var wire 1 A! inst_lw $end
$var wire 1 B! inst_jalr $end
$var wire 1 C! inst_sw $end
$var wire 1 D! inst_beq $end
$var wire 1 E! inst_bne $end
$var wire 1 F! inst_blt $end
$var wire 1 G! inst_bge $end
$var wire 1 H! inst_lui $end
$var wire 1 I! inst_jal $end
$var wire 1 J! inst_mret $end
$var wire 1 K! ram_we_raw $end
$var wire 1 L! supported_inst $end
$upscope $end
$scope module SEX_0 $end
$var wire 3 G sext_op [2:0] $end
$var wire 25 M! din [24:0] $end
$var wire 32 N ext [31:0] $end
$var wire 1 N! sgn $end
$upscope $end
$scope module RF_0 $end
$var wire 1 : clk $end
$var wire 1 O! rst $end
$var wire 5 P! rR1 [4:0] $end
$var reg 32 Q! rD1 [31:0] $end
$var wire 5 %! rR2 [4:0] $end
$var reg 32 R! rD2 [31:0] $end
$var wire 32 n aluc [31:0] $end
$var wire 32 m pc4 [31:0] $end
$var wire 32 p ext [31:0] $end
$var wire 32 o rdom [31:0] $end
$var wire 5 l wR [4:0] $end
$var wire 1 j rf_we $end
$var wire 3 k rf_wsel [2:0] $end
$var reg 32 S! wD [31:0] $end
$var integer 32 T! i $end
$upscope $end
$scope module U_ID_EX $end
$var wire 1 : clk $end
$var wire 1 9 rst $end
$var wire 3 D ID_npc_op [2:0] $end
$var wire 1 I ID_ram_we $end
$var wire 4 J ID_alu_op [3:0] $end
$var wire 3 H ID_alub_sel [2:0] $end
$var wire 1 E ID_rf_we $end
$var wire 3 F ID_rf_wsel [2:0] $end
$var wire 5 U! ID_wR [4:0] $end
$var wire 32 C ID_pc4 [31:0] $end
$var wire 32 q ID_rD1 [31:0] $end
$var wire 32 r ID_rD2 [31:0] $end
$var wire 32 N ID_ext [31:0] $end
$var wire 1 L ID_illegal $end
$var wire 1 M ID_mret $end
$var reg 3 V! EX_npc_op [2:0] $end
$var reg 1 W! EX_ram_we $end
$var reg 4 X! EX_alu_op [3:0] $end
$var reg 3 Y! EX_alub_sel [2:0] $end
$var reg 1 Z! EX_rf_we $end
$var reg 3 [! EX_rf_wsel [2:0] $end
$var reg 5 \! EX_wR [4:0] $end
$var reg 32 ]! EX_pc4 [31:0] $end
$var reg 32 ^! EX_rD1 [31:0] $end
$var reg 32 _! EX_rD2 [31:0] $end
$var reg 32 `! EX_ext [31:0] $end
$var reg 1 a! EX_illegal $end
$var reg 1 b! EX_mret $end
$var wire 1 u control_hazard $end
$var wire 1 s data_hazard $end
$upscope $end
$scope module ALU_0 $end
$var wire 4 T alu_op [3:0] $end
$var wire 3 U alub_sel [2:0] $end
$var wire 32 Z rs1 [31:0] $end
$var wire 32 [ rs2 [31:0] $end
$var wire 32 \ imm [31:0] $end
$var wire 32 _ alu_c [31:0] $end
$var wire 2 ` br [1:0] $end
$var reg 32 c! A [31:0] $end
$var reg 32 d! B [31:0] $end
$var reg 32 e! C_tmp [31:0] $end
$var reg 2 f! br_tmp [1:0] $end
$upscope $end
$scope module U_EX_MEM $end
$var wire 1 : clk $end
$var wire 1 9 rst $end
$var wire 1 g! EX_ram_we $end
$var wire 1 h! EX_rf_we $end
$var wire 3 W EX_rf_wsel [2:0] $end
$var wire 5 X EX_wR [4:0] $end
$var wire 32 Y EX_pc4 [31:0] $end
$var wire 32 _ EX_alu_c [31:0] $end
$var wire 32 [ EX_rD2 [31:0] $end
$var wire 32 \ EX_ext [31:0] $end
$var reg 1 i! MEM_ram_we $end
$var reg 1 j! MEM_rf_we $end
$var reg 3 k! MEM_rf_wsel [2:0] $end
$var reg 5 l! MEM_wR [4:0] $end
$var reg 32 m! MEM_pc4 [31:0] $end
$var reg 32 n! MEM_alu_c [31:0] $end
$var reg 32 o! MEM_rD2 [31:0] $end
$var reg 32 p! MEM_ext [31:0] $end
$upscope $end
$scope module U_MEM_WB $end
$var wire 1 : clk $end
$var wire 1 9 rst $end
$var wire 1 b MEM_rf_we $end
$var wire 3 c MEM_rf_wsel [2:0] $end
$var wire 5 d MEM_wR [4:0] $end
$var wire 32 e MEM_pc4 [31:0] $end
$var wire 32 f MEM_alu_c [31:0] $end
$var wire 32 i MEM_rd [31:0] $end
$var wire 32 h MEM_ext [31:0] $end
$var reg 1 q! WB_rf_we $end
$var reg 3 r! WB_rf_wsel [2:0] $end
$var reg 5 s! WB_wR [4:0] $end
$var reg 32 t! WB_pc4 [31:0] $end
$var reg 32 u! WB_alu_c [31:0] $end
$var reg 32 v! WB_rd [31:0] $end
$var reg 32 w! WB_ext [31:0] $end
$upscope $end
$scope module U_datahazard_detection $end
$var wire 5 P! ID_rR1 [4:0] $end
$var wire 5 %! ID_rR2 [4:0] $end
$var wire 2 K ID_rf_re [1:0] $end
$var wire 32 O ID_rD1 [31:0] $end
$var wire 32 P ID_rD2 [31:0] $end
$var wire 5 X EX_wR [4:0] $end
$var wire 1 V EX_rf_we $end
$var wire 3 W EX_rf_wsel [2:0] $end
$var wire 32 Y EX_pc4 [31:0] $end
$var wire 32 \ EX_ext [31:0] $end
$var wire 32 _ EX_alu_c [31:0] $end
$var wire 5 d MEM_wR [4:0] $end
$var wire 1 b MEM_rf_we $end
$var wire 3 c MEM_rf_wsel [2:0] $end
$var wire 32 e MEM_pc4 [31:0] $end
$var wire 32 h MEM_ext [31:0] $end
$var wire 32 f MEM_alu_c [31:0] $end
$var wire 32 i MEM_rd [31:0] $end
$var wire 5 l WB_wR [4:0] $end
$var wire 1 j WB_rf_we $end
$var wire 3 k WB_rf_wsel [2:0] $end
$var wire 32 m WB_pc4 [31:0] $end
$var wire 32 p WB_ext [31:0] $end
$var wire 32 n WB_alu_c [31:0] $end
$var wire 32 o WB_rd [31:0] $end
$var reg 32 x! new_rD1 [31:0] $end
$var reg 32 y! new_rD2 [31:0] $end
$var wire 1 s data_hazard $end
$var wire 1 z! rR1_a $end
$var wire 1 {! rR2_a $end
$var wire 1 |! rR1_b $end
$var wire 1 }! rR2_b $end
$var wire 1 ~! rR1_c $end
$var wire 1 !" rR2_c $end
$upscope $end
$scope module U_control_hazard_detection $end
$var wire 3 R EX_npc_op [2:0] $end
$var wire 2 ` alu_f [1:0] $end
$var reg 1 "" control_hazard $end
$upscope $end
$upscope $end
$scope task load_irom_coe $end
$var reg 1024 #" primary_path [1023:0] $end
$var reg 1024 $" fallback_path [1023:0] $end
$var integer 32 %" fd $end
$var integer 32 &" r $end
$var integer 32 '" idx $end
$var reg 1024 (" line [1023:0] $end
$var reg 32 )" value [31:0] $end
$upscope $end
$scope task load_dram_coe $end
$var reg 1024 *" primary_path [1023:0] $end
$var reg 1024 +" fallback_path [1023:0] $end
$var integer 32 ," fd $end
$var integer 32 -" r $end
$var integer 32 ." idx $end
$var reg 1024 /" line [1023:0] $end
$var reg 32 0" value [31:0] $end
$upscope $end
$upscope $end
$enddefinitions $end
#0
$dumpvars
0!
b0 !!
0!"
1"
b10011 "!
0""
0#
b0 #!
b111000001110010011011110110011101110010011000010110110100101110011000110110111101100101 #"
0$
b0 $!
b10111000101110001011110010111000101110001011110010111000101110001011110010111000101110001011110111000001110010011011110110011101110010011000010110110100101110011000110110111101100101 $"
b0 %
b0 %!
b11111111111111111011000111100000 %"
b0 &
0&!
b0 &"
0'
0'!
b10011 '"
b11111111111111111111111111111100 (
1(!
b0 ("
b111 )
0)!
b1101111 )"
0*
0*!
b11100000111001001101111011001110111001001100001011011010100010001010010010000010100110100101110011000110110111101100101 *"
b0 +
0+!
b1011100010111000101111001011100010111000101111001011100010111000101111001011100010111000101111011100000111001001101111011001110111001001100001011011010100010001010010010000010100110100101110011000110110111101100101 +"
b10010011 ,
0,!
b11111111111111111011000111100000 ,"
b0 -
0-!
b0 -"
b0 .
0.!
b101000 ."
0/
0/!
b0 /"
b0 0
00!
b0 0"
b101 1
01!
02
02!
b0 3
03!
b100000000000000 4
04!
b0 5
05!
b100000000000000 6
06!
b1000000000000 7
07!
b100000000000000 8
08!
19
09!
0:
1:!
0;
0;!
0<
0<!
b0 =
0=!
b0 >
0>!
b0 ?
0?!
b100 @
0@!
b100 A
0A!
b10011 B
0B!
b0 C
0C!
b0 D
0D!
1E
0E!
b0 F
0F!
b0 G
0G!
b1 H
0H!
0I
0I!
b0 J
0J!
b1 K
0K!
0L
1L!
0M
b0 M!
b0 N
0N!
bx O
zO!
bx P
b0 P!
b0 Q
bx Q!
b0 R
bx R!
0S
b0 S!
b0 T
bx T!
b0 U
b0 U!
0V
b0 V!
b0 W
0W!
b0 X
b0 X!
b0 Y
b0 Y!
b0 Z
0Z!
b0 [
b0 [!
b0 \
b0 \!
0]
b0 ]!
0^
b0 ^!
b0 _
b0 _!
b0 `
b0 `!
0a
0a!
0b
0b!
b0 c
b0 c!
b0 d
b0 d!
b0 e
b0 e!
b0 f
b0 f!
b0 g
0g!
b0 h
0h!
b101 i
0i!
0j
0j!
b0 k
b0 k!
b0 l
b0 l!
b0 m
b0 m!
b0 n
b0 n!
b0 o
b0 o!
b0 p
b0 p!
bx q
0q!
bx r
b0 r!
0s
b0 s!
0t
b0 t!
0u
b0 u!
0v
b0 v!
0w
b0 w!
0x
bx x!
b11111111111111111111111111111100 y
bx y!
b111 z
0z!
b10010011 {
0{!
b0 |
0|!
b100 }
0}!
b10011 ~
0~!
$end
#5000
1!
b0 !!
1:
b0 V!
0W!
b0 X!
b0 Y!
0Z!
b0 [!
b0 \!
b0 ]!
b0 ^!
b0 _!
b0 `!
0a!
0b!
0i!
0j!
b0 k!
b0 l!
b0 m!
b0 n!
b0 o!
b0 p!
0q!
b0 r!
b0 s!
b0 t!
b0 u!
b0 v!
b0 w!
b0 |
b10011 ~
#10000
0!
0:
bx Q!
bx R!
#15000
1!
b0 !!
1:
b0 V!
0W!
b0 X!
b0 Y!
0Z!
b0 [!
b0 \!
b0 ]!
b0 ^!
b0 _!
b0 `!
0a!
0b!
0i!
0j!
b0 k!
b0 l!
b0 m!
b0 n!
b0 o!
b0 p!
0q!
b0 r!
b0 s!
b0 t!
b0 u!
b0 v!
b0 w!
b0 |
b10011 ~
#20000
0!
0:
bx Q!
bx R!
#25000
1!
b0 !!
1:
b0 V!
0W!
b0 X!
b0 Y!
0Z!
b0 [!
b0 \!
b0 ]!
b0 ^!
b0 _!
b0 `!
0a!
0b!
0i!
0j!
b0 k!
b0 l!
b0 m!
b0 n!
b0 o!
b0 p!
0q!
b0 r!
b0 s!
b0 t!
b0 u!
b0 v!
b0 w!
b0 |
b10011 ~
#30000
0!
0:
bx Q!
bx R!
#35000
1!
b0 !!
1:
b0 V!
0W!
b0 X!
b0 Y!
0Z!
b0 [!
b0 \!
b0 ]!
b0 ^!
b0 _!
b0 `!
0a!
0b!
0i!
0j!
b0 k!
b0 l!
b0 m!
b0 n!
b0 o!
b0 p!
0q!
b0 r!
b0 s!
b0 t!
b0 u!
b0 v!
b0 w!
b0 |
b10011 ~
#40000
0!
0:
bx Q!
bx R!
#45000
1!
b0 !!
1:
b0 V!
0W!
b0 X!
b0 Y!
0Z!
b0 [!
b0 \!
b0 ]!
b0 ^!
b0 _!
b0 `!
0a!
0b!
0i!
0j!
b0 k!
b0 l!
b0 m!
b0 n!
b0 o!
b0 p!
0q!
b0 r!
b0 s!
b0 t!
b0 u!
b0 v!
b0 w!
b0 |
b10011 ~
#50000
0!
0"
09
0:
bx Q!
bx R!
#55000
1!
b100 !!
b10011 "!
b0 #!
b0 $!
b0 %!
b1 +
b1010000100000011 ,
b1 -
b0 .
1:
b100 ?
b1000 @
b1000 A
b10010011 B
b100 C
b1 M!
b0 P!
b0 S!
b1 U
b1 U!
1V
b0 V!
0W!
b0 X!
b1 Y!
bx Z
1Z!
bx [
b0 [!
b0 \!
b0 ]!
bx ^!
bx _
bx _!
b0 `!
0a!
0b!
bx c!
b0 d!
bx e!
b0 f!
1h!
0i!
0j!
b0 k!
b0 l!
b0 m!
b0 n!
b101 o
b0 o!
b0 p!
0q!
b0 r!
b0 s!
b0 t!
b0 u!
b101 v!
b0 w!
bx x!
bx y!
0z!
b1010000100000011 {
0{!
b100 |
b1000 }
b10010011 ~
#60000
0!
0:
bx Q!
bx R!
#65000
1!
b1000 !!
b11 "!
b0 #!
b10 $!
b0 %!
0&!
0'!
b0 (
0(!
0)!
0*!
b10 +
0+!
b1000010000000110110011 ,
0,!
b10 -
0-!
b0 .
0.!
0/!
bx 0
00!
bx 1
01!
bx 3
bx 5
1:
0:!
0;!
0<!
0=!
0>!
b1000 ?
0?!
b1100 @
0@!
b1100 A
1A!
b1010000100000011 B
0B!
b1000 C
0C!
0D!
0E!
b1 F
0F!
0G!
0H!
0I!
0J!
b1 K
1L!
b101000010 M!
b1 P!
b10 U!
b0 V!
0W!
b1 X
b0 X!
b100 Y
b1 Y!
1Z!
b0 [!
b1 \!
b100 ]!
bx ^!
bx _!
b0 `!
0a!
1b
0b!
bx f
bx g
bx i
0i!
1j!
b0 k!
b0 l!
b0 m!
bx n!
bx o!
b0 p!
0q!
b0 r!
b0 s!
b0 t!
b0 u!
b101 v!
b0 w!
bx x!
b0 y
bx y!
1z!
b1000010000000110110011 {
0{!
b1000 |
0|!
b1100 }
0}!
b1010000100000011 ~
0~!
#70000
0!
0:
bx Q!
bx R!
#75000
1!
b1100 !!
0!"
b110011 "!
b0 #!
b0 $!
b10 %!
1&!
0'!
b100 (
0(!
0)!
1*!
b11 +
0+!
b100011000001000010011 ,
0,!
b11 -
0-!
b0 .
0.!
0/!
00!
01!
1:
0:!
0;!
0<!
0=!
0>!
b1100 ?
0?!
b10000 @
0@!
b10000 A
0A!
b1000010000000110110011 B
0B!
b1100 C
0C!
0D!
0E!
b0 F
0F!
0G!
b0 H
0H!
0I!
0J!
b11 K
1L!
b100001000000011 M!
b10 N
b10 P!
bx Q
bx S!
b11 U!
b0 V!
b1 W
0W!
b10 X
b0 X!
b1000 Y
b1 Y!
1Z!
b1 [!
b10 \!
b1000 ]!
bx ^!
bx _!
b0 `!
0a!
0b!
b1 d
b100 e
0i!
1j
1j!
b0 k!
b1 l!
b100 m!
bx n
bx n!
bx o
bx o!
b0 p!
1q!
b0 r!
1s
b0 s!
b0 t!
bx u!
bx v!
b0 w!
bx x!
b100 y
bx y!
1z!
b100011000001000010011 {
1{!
b1100 |
0|!
b10000 }
0}!
b1000010000000110110011 ~
0~!
#80000
0!
0:
bx Q!
bx R!
#85000
1!
b1100 !!
0!"
b11111111111111111111111111111100 (
1:
bx S!
b0 U
0V
b0 V!
b0 W
0W!
b0 X
b0 X!
b0 Y
b0 Y!
b0 Z
0Z!
b0 [
b0 [!
b0 \!
b0 ]!
b0 ^!
b0 _
b0 _!
b0 `!
0a!
0b!
b1 c
b0 c!
b10 d
b0 d!
b1000 e
b0 e!
b0 f!
0h!
0i!
1j!
b1 k!
b1 l
b10 l!
b100 m
b1000 m!
bx n!
bx o!
b0 p!
1q!
b0 r!
0s
b1 s!
b100 t!
bx u!
bx v!
b0 w!
bx x!
b11111111111111111111111111111100 y
bx y!
0z!
0{!
b1100 |
1|!
b10000 }
1}!
b1000010000000110110011 ~
0~!
#90000
0!
0:
bx Q!
bx R!
#95000
1!
b10000 !!
0!"
b10011 "!
b0 #!
b0 $!
b1 %!
0&!
0'!
b1000 (
1(!
0)!
0*!
b100 +
0+!
b10000011000001010110011 ,
0,!
b100 -
0-!
b0 .
0.!
0/!
b0 0
00!
b101 1
01!
b0 3
b0 5
1:
1:!
0;!
0<!
0=!
0>!
b10000 ?
0?!
b10100 @
0@!
b10100 A
0A!
b100011000001000010011 B
0B!
b10000 C
b1 H
0H!
0I!
0J!
b1 K
1L!
b10001100000100 M!
b1 N
b11 P!
bx S!
b100 U!
1V
b0 V!
0W!
b11 X
b0 X!
b1100 Y
b0 Y!
bx Z
1Z!
bx [
b0 [!
b10 \
b11 \!
b1100 ]!
bx ^!
bx _
bx _!
b10 `!
0a!
0b
0b!
b0 c
bx c!
b0 d
bx d!
b0 e
bx e!
b0 f
b0 f!
b0 g
1h!
b101 i
0i!
0j!
b1 k
b0 k!
b10 l
b0 l!
b1000 m
b0 m!
b0 n!
b0 o!
b0 p!
1q!
b1 r!
b10 s!
b1000 t!
bx u!
bx v!
b0 w!
bx x!
b1000 y
bx y!
1z!
b10000011000001010110011 {
0{!
b10000 |
0|!
b10100 }
0}!
b100011000001000010011 ~
0~!
#100000
0!
0:
bx Q!
bx R!
#105000
1!
b10100 !!
0!"
b110011 "!
b0 #!
b0 $!
b100 %!
1&!
0'!
b1100 (
0(!
0)!
1*!
b101 +
0+!
b10100001010001000100011 ,
0,!
b101 -
0-!
b0 .
0.!
0/!
bx 0
00!
bx 1
01!
bx 3
bx 5
1:
0:!
0;!
0<!
0=!
0>!
b10100 ?
0?!
b11000 @
0@!
b11000 A
0A!
b10000011000001010110011 B
0B!
b10100 C
b0 H
0H!
0I!
0J!
b11 K
1L!
b1000001100000101 M!
b100 N
b11 P!
b0 Q
b0 S!
b1 U
b101 U!
b0 V!
0W!
b100 X
b0 X!
b10000 Y
b1 Y!
1Z!
b0 [!
b1 \
b100 \!
b10000 ]!
bx ^!
bx _!
b1 `!
0a!
1b
0b!
b11 d
b1 d!
b1100 e
bx e!
bx f
b0 f!
bx g
b10 h
bx i
0i!
0j
1j!
b0 k
b0 k!
b0 l
b11 l!
b0 m
b1100 m!
b0 n
bx n!
b101 o
bx o!
b10 p!
0q!
b0 r!
b0 s!
b0 t!
b0 u!
b101 v!
b0 w!
bx x!
b1100 y
bx y!
0z!
b10100001010001000100011 {
1{!
b10100 |
1|!
b11000 }
0}!
b10000011000001010110011 ~
0~!
#110000
0!
0:
bx Q!
bx R!
#115000
1!
b11000 !!
0!"
b100011 "!
b0 #!
b10 $!
b101 %!
0&!
0'!
b10000 (
0(!
1)!
0*!
b110 +
0+!
b100000000001100010011 ,
0,!
b110 -
0-!
b0 .
0.!
0/!
00!
01!
1:
0:!
0;!
0<!
0=!
0>!
b11000 ?
0?!
b11100 @
0@!
b11100 A
0A!
b10100001010001000100011 B
0B!
b11000 C
1C!
0D!
0E
0E!
0F!
b1 G
0G!
b1 H
0H!
1I
0I!
0J!
1K!
1L!
b1010000101000100 M!
b100 N
b1 P!
bx Q
bx S!
b0 U
b100 U!
b0 V!
0W!
b101 X
b0 X!
b10100 Y
b0 Y!
1Z!
b0 [!
b100 \
b101 \!
b10100 ]!
bx ^!
bx _!
b100 `!
0a!
0b!
b100 d
bx d!
b10000 e
bx e!
b0 f!
b1 h
0i!
1j
1j!
b0 k!
b11 l
b100 l!
b1100 m
b10000 m!
bx n
bx n!
bx o
bx o!
b10 p
b1 p!
1q!
b0 r!
b11 s!
b1100 t!
bx u!
bx v!
b10 w!
bx x!
b10000 y
bx y!
0z!
b100000000001100010011 {
1{!
b11000 |
0|!
b11100 }
0}!
b10100001010001000100011 ~
0~!
#120000
0!
0:
bx Q!
bx R!
#125000
1!
b11100 !!
0!"
b10011 "!
b0 #!
b0 $!
b1 %!
0&!
0'!
b10100 (
1(!
0)!
0*!
b111 +
0+!
b100000000001110010011 ,
0,!
b111 -
0-!
b0 .
0.!
0/!
00!
01!
1:
1:!
0;!
0<!
0=!
0>!
b11100 ?
0?!
b100000 @
0@!
b100000 A
0A!
b100000000001100010011 B
0B!
b11100 C
0C!
0D!
1E
0E!
0F!
b0 G
0G!
0H!
0I
0I!
0J!
b1 K
0K!
1L!
b10000000000110 M!
b1 N
b0 P!
1S
bx S!
b1 U
b110 U!
0V
b0 V!
1W!
b100 X
b0 X!
b11000 Y
b1 Y!
0Z!
b0 [!
b100 \!
b11000 ]!
bx ^!
bx _!
b100 `!
0a!
0b!
b101 d
b100 d!
b10100 e
bx e!
b0 f!
1g!
b100 h
0h!
0i!
1j!
b0 k!
b100 l
b101 l!
b10000 m
b10100 m!
bx n!
bx o!
b1 p
b100 p!
1q!
b0 r!
b100 s!
b10000 t!
bx u!
bx v!
b1 w!
bx x!
b10100 y
bx y!
0z!
b100000000001110010011 {
0{!
b11100 |
0|!
b100000 }
0}!
b100000000001100010011 ~
0~!
#130000
0!
0:
bx Q!
bx R!
#135000
1!
b100000 !!
0!"
b10011 "!
b0 #!
b0 $!
b1 %!
b11000 (
b1000 +
b11100110000010001100011 ,
b1000 -
b0 .
12
1:
b100000 ?
b100100 @
b100100 A
b100000000001110010011 B
b100000 C
b10000000000111 M!
b0 P!
0S
bx S!
b111 U!
1V
b0 V!
0W!
b110 X
b0 X!
b11100 Y
b1 Y!
1Z!
b0 [!
b1 \
b110 \!
b11100 ]!
bx ^!
bx _!
b1 `!
1a
0a!
0b
0b!
b100 d
b1 d!
b11000 e
bx e!
b0 f!
0g!
1h!
1i!
0j!
b0 k!
b101 l
b100 l!
b10100 m
b11000 m!
bx n!
bx o!
b100 p
b100 p!
1q!
b0 r!
b101 s!
b10100 t!
bx u!
bx v!
b100 w!
bx x!
b11000 y
bx y!
0z!
b11100110000010001100011 {
0{!
b100000 |
0|!
b100100 }
0}!
b100000000001110010011 ~
0~!
#140000
0!
0:
bx Q!
bx R!
#145000
1!
b100100 !!
0!"
b1100011 "!
b0 #!
b0 $!
b111 %!
0&!
1'!
b11100 (
0(!
0)!
b1001 +
b11100000000010000010011 ,
b1001 -
b0 .
02
1:
0:!
0;!
0<!
0=!
0>!
b100100 ?
0?!
b101000 @
0@!
b101000 A
0A!
b11100110000010001100011 B
0B!
b100100 C
b1 D
1D!
0E
0E!
0F!
b10 G
0G!
b0 H
0H!
0I!
b1 J
0J!
b11 K
1L!
b1110011000001000 M!
b1000 N
b110 P!
bx S!
b1000 U!
b0 V!
0W!
b111 X
b0 X!
b100000 Y
b1 Y!
1Z!
b0 [!
b111 \!
b100000 ]!
bx ^!
bx _!
b1 `!
0a
0a!
1b
0b!
b110 d
b11100 e
b1 h
0i!
0j
1j!
b0 k!
b100 l
b110 l!
b11000 m
b11100 m!
bx n!
bx o!
b1 p!
0q!
b0 r!
b100 s!
b11000 t!
bx u!
bx v!
b100 w!
bx x!
b11100 y
bx y!
0z!
b11100000000010000010011 {
1{!
b100100 |
1|!
b101000 }
0}!
b11100110000010001100011 ~
0~!
#150000
0!
0:
bx Q!
bx R!
