rvTest/rvTest.sim/sim_mem_stage/behav/xsim/MEM_stage_tb.vcd
$date
   Sat Jan 17 15:25:03 2026
$end
$version
  2017.4
$end
$timescale
  1ps
$end
$scope module MEM_stage_tb $end
$var reg 1 ! clk $end
$var reg 1 " rst $end
$var reg 32 # addr_from_cpu [31:0] $end
$var reg 1 $ we_from_cpu $end
$var reg 32 % wdata_from_cpu [31:0] $end
$var wire 32 & rdata_to_cpu [31:0] $end
$var wire 1 ' clk_to_dram $end
$var wire 32 ( addr_to_dram [31:0] $end
$var reg 32 ) rdata_from_dram [31:0] $end
$var wire 1 * we_to_dram $end
$var wire 32 + wdata_to_dram [31:0] $end
$var wire 1 , rst_to_dig $end
$var wire 1 - clk_to_dig $end
$var wire 1 . we_to_dig $end
$var wire 32 / addr_to_dig [31:0] $end
$var wire 32 0 wdata_to_dig [31:0] $end
$var wire 1 1 rst_to_led $end
$var wire 1 2 clk_to_led $end
$var wire 1 3 we_to_led $end
$var wire 32 4 addr_to_led [31:0] $end
$var wire 32 5 wdata_to_led [31:0] $end
$var wire 1 6 rst_to_sw $end
$var wire 1 7 clk_to_sw $end
$var wire 32 8 addr_to_sw [31:0] $end
$var reg 32 9 rdata_from_sw [31:0] $end
$var wire 1 : rst_to_btn $end
$var wire 1 ; clk_to_btn $end
$var wire 32 < addr_to_btn [31:0] $end
$var reg 32 = rdata_from_btn [31:0] $end
$var wire 1 > rst_to_timer $end
$var wire 1 ? clk_to_timer $end
$var wire 1 @ wen_to_timer $end
$var wire 32 A addr_to_timer [31:0] $end
$var wire 32 B wdata_to_timer [31:0] $end
$var reg 32 C rdata_from_timer [31:0] $end
$var wire 1 D rst_to_keypad $end
$var wire 1 E clk_to_keypad $end
$var wire 1 F wen_to_keypad $end
$var wire 32 G addr_to_keypad [31:0] $end
$var wire 32 H wdata_to_keypad [31:0] $end
$var reg 32 I rdata_from_keypad [31:0] $end
$var wire 1 J rst_to_pwm $end
$var wire 1 K clk_to_pwm $end
$var wire 1 L wen_to_pwm $end
$var wire 32 M addr_to_pwm [31:0] $end
$var wire 32 N wdata_to_pwm [31:0] $end
$var reg 32 O rdata_from_pwm [31:0] $end
$var wire 1 P rst_to_wdt $end
$var wire 1 Q clk_to_wdt $end
$var wire 1 R wen_to_wdt $end
$var wire 32 S addr_to_wdt [31:0] $end
$var wire 32 T wdata_to_wdt [31:0] $end
$var reg 32 U rdata_from_wdt [31:0] $end
$var wire 1 V rst_to_uart $end
$var wire 1 W clk_to_uart $end
$var wire 1 X wen_to_uart $end
$var wire 32 Y addr_to_uart [31:0] $end
$var wire 32 Z wdata_to_uart [31:0] $end
$var reg 32 [ rdata_from_uart [31:0] $end
$var integer 32 \ dram_i $end
$scope module uut $end
$var wire 1 ] rst_from_cpu $end
$var wire 1 ^ clk_from_cpu $end
$var wire 32 _ addr_from_cpu [31:0] $end
$var wire 1 ` we_from_cpu $end
$var wire 32 a wdata_from_cpu [31:0] $end
$var reg 32 b rdata_to_cpu [31:0] $end
$var wire 1 ' clk_to_dram $end
$var wire 32 ( addr_to_dram [31:0] $end
$var wire 32 c rdata_from_dram [31:0] $end
$var wire 1 * we_to_dram $end
$var wire 32 + wdata_to_dram [31:0] $end
$var wire 1 , rst_to_dig $end
$var wire 1 - clk_to_dig $end
$var wire 32 / addr_to_dig [31:0] $end
$var wire 1 . we_to_dig $end
$var wire 32 0 wdata_to_dig [31:0] $end
$var wire 1 1 rst_to_led $end
$var wire 1 2 clk_to_led $end
$var wire 32 4 addr_to_led [31:0] $end
$var wire 1 3 we_to_led $end
$var wire 32 5 wdata_to_led [31:0] $end
$var wire 1 6 rst_to_sw $end
$var wire 1 7 clk_to_sw $end
$var wire 32 8 addr_to_sw [31:0] $end
$var wire 32 d rdata_from_sw [31:0] $end
$var wire 1 : rst_to_btn $end
$var wire 1 ; clk_to_btn $end
$var wire 32 < addr_to_btn [31:0] $end
$var wire 32 e rdata_from_btn [31:0] $end
$var wire 1 > rst_to_timer $end
$var wire 1 ? clk_to_timer $end
$var wire 1 @ wen_to_timer $end
$var wire 32 A addr_to_timer [31:0] $end
$var wire 32 B wdata_to_timer [31:0] $end
$var wire 32 f rdata_from_timer [31:0] $end
$var wire 1 D rst_to_keypad $end
$var wire 1 E clk_to_keypad $end
$var wire 1 F wen_to_keypad $end
$var wire 32 G addr_to_keypad [31:0] $end
$var wire 32 H wdata_to_keypad [31:0] $end
$var wire 32 g rdata_from_keypad [31:0] $end
$var wire 1 J rst_to_pwm $end
$var wire 1 K clk_to_pwm $end
$var wire 1 L wen_to_pwm $end
$var wire 32 M addr_to_pwm [31:0] $end
$var wire 32 N wdata_to_pwm [31:0] $end
$var wire 32 h rdata_from_pwm [31:0] $end
$var wire 1 P rst_to_wdt $end
$var wire 1 Q clk_to_wdt $end
$var wire 1 R wen_to_wdt $end
$var wire 32 S addr_to_wdt [31:0] $end
$var wire 32 T wdata_to_wdt [31:0] $end
$var wire 32 i rdata_from_wdt [31:0] $end
$var wire 1 V rst_to_uart $end
$var wire 1 W clk_to_uart $end
$var wire 1 X wen_to_uart $end
$var wire 32 Y addr_to_uart [31:0] $end
$var wire 32 Z wdata_to_uart [31:0] $end
$var wire 32 j rdata_from_uart [31:0] $end
$var wire 1 k rst_to_cp0 $end
$var wire 1 l clk_to_cp0 $end
$var wire 1 m wen_to_cp0 $end
$var wire 32 n addr_to_cp0 [31:0] $end
$var wire 32 o wdata_to_cp0 [31:0] $end
$var wire 32 p rdata_from_cp0 [31:0] $end
$var wire 1 q clk_to_pram $end
$var wire 12 r addr_to_pram [11:0] $end
$var wire 32 s wdata_to_pram [31:0] $end
$var wire 1 t we_to_pram $end
$var wire 32 u rdata_from_pram [31:0] $end
$var wire 1 v access_pram $end
$var wire 1 w access_mem $end
$var wire 1 x access_dig $end
$var wire 1 y access_led $end
$var wire 1 z access_sw $end
$var wire 1 { access_btn $end
$var wire 1 | access_timer $end
$var wire 1 } access_keypad $end
$var wire 1 ~ access_pwm $end
$var wire 1 !! access_wdt $end
$var wire 1 "! access_uart $end
$var wire 1 #! access_cp0 $end
$var wire 12 $! access_bit [11:0] $end
$upscope $end
$scope task write_mem $end
$var reg 32 %! addr [31:0] $end
$var reg 32 &! data [31:0] $end
$var reg 640 '! desc [640:1] $end
$upscope $end
$scope task read_mem $end
$var reg 32 (! addr [31:0] $end
$var reg 640 )! desc [640:1] $end
$upscope $end
$upscope $end
$enddefinitions $end
#0
$dumpvars
0!
0!!
1"
0"!
b0 #
0#!
0$
b10000000000 $!
b0 %
bx %!
b0 &
bx &!
0'
bx '!
b0 (
bx (!
b0 )
bx )!
0*
b0 +
1,
0-
0.
b0 /
b0 0
11
02
03
b0 4
b0 5
16
07
b0 8
b10101010 9
1:
0;
b0 <
b101 =
1>
0?
0@
b0 A
b0 B
b1001000110100 C
1D
0E
0F
b0 G
b0 H
b1 I
1J
0K
0L
b0 M
b0 N
b100000000 O
1P
0Q
0R
b0 S
b0 T
b1100101011111110 U
1V
0W
0X
b0 Y
b0 Z
b11111111 [
b100000000 \
1]
0^
b0 _
0`
b0 a
b0 b
b0 c
b10101010 d
b101 e
b1001000110100 f
b1 g
b100000000 h
b1100101011111110 i
b11111111 j
1k
0l
0m
b0 n
b0 o
bz p
0q
b0 r
b0 s
0t
bz u
0v
1w
0x
0y
0z
0{
0|
0}
0~
$end
#5000
1!
1'
b0 )
1-
12
17
1;
1?
1E
1K
1Q
1W
1^
1l
1q
#10000
0!
0'
0-
02
07
0;
0?
0E
0K
0Q
0W
0^
0l
0q
#15000
1!
1'
b0 )
1-
12
17
1;
1?
1E
1K
1Q
1W
1^
1l
1q
#20000
0!
0"
0'
0,
0-
01
02
06
07
0:
0;
0>
0?
0D
0E
0J
0K
0P
0Q
0V
0W
0]
0^
0k
0l
0q
#25000
1!
1'
b0 )
1-
12
17
1;
1?
1E
1K
1Q
1W
1^
1l
1q
#30000
0!
b0 #
1$
b10010001101000101011001111000 %
b0 %!
b10010001101000101011001111000 &!
0'
b100010001010010111111111111111111111111100111001111111111111111111111111000000000110000011110000011000000110000 '!
1*
b10010001101000101011001111000 +
0-
b10010001101000101011001111000 0
02
b10010001101000101011001111000 5
07
0;
0?
1@
b10010001101000101011001111000 B
0E
b10010001101000101011001111000 H
0K
b10010001101000101011001111000 N
0Q
b10010001101000101011001111000 T
0W
b10010001101000101011001111000 Z
0^
1`
b10010001101000101011001111000 a
0l
b10010001101000101011001111000 o
0q
b10010001101000101011001111000 s
#35000
1!
1'
b0 )
1-
12
17
1;
1?
1E
1K
1Q
1W
1^
1l
1q
#36000
0$
b100 %!
b10101011110011011110111100000000 &!
b100010001010010111111111111111111111111100111001111111111111111111111111000000000110000011110000011000000110100 '!
0*
0@
0`
#40000
0!
0!!
b100 #
1$
b10101011110011011110111100000000 %
0'
b100 (
1*
b10101011110011011110111100000000 +
0-
b100 /
b10101011110011011110111100000000 0
02
b100 4
b10101011110011011110111100000000 5
07
b100 8
0;
b100 <
0?
1@
b100 A
b10101011110011011110111100000000 B
0E
b100 G
b10101011110011011110111100000000 H
0K
b100 M
b10101011110011011110111100000000 N
0Q
b100 S
b10101011110011011110111100000000 T
0W
b100 Y
b10101011110011011110111100000000 Z
0^
b100 _
1`
b10101011110011011110111100000000 a
0l
b100 n
b10101011110011011110111100000000 o
0q
b1 r
b10101011110011011110111100000000 s
0x
0y
0z
0{
#45000
1!
1'
b0 )
1-
12
17
1;
1?
1E
1K
1Q
1W
1^
1l
1q
#46000
0$
b100000000 %!
b11011110101011011011111011101111 &!
b10001000101001001000001111111111111111111111111101100001111111111111111100000000011000001111000001100010011000000110000 '!
0*
0@
0`
#50000
0!
0!!
0"!
b100000000 #
0#!
1$
b11011110101011011011111011101111 %
0'
b100000000 (
1*
b11011110101011011011111011101111 +
0-
b100000000 /
b11011110101011011011111011101111 0
02
b100000000 4
b11011110101011011011111011101111 5
07
b100000000 8
0;
b100000000 <
0?
1@
b100000000 A
b11011110101011011011111011101111 B
0E
b100000000 G
b11011110101011011011111011101111 H
0K
b100000000 M
b11011110101011011011111011101111 N
0Q
b100000000 S
b11011110101011011011111011101111 T
0W
b100000000 Y
b11011110101011011011111011101111 Z
0^
b100000000 _
1`
b11011110101011011011111011101111 a
0l
b100000000 n
b11011110101011011011111011101111 o
0q
b1000000 r
b11011110101011011011111011101111 s
0x
0y
0z
0{
0|
0}
0~
#55000
1!
1'
b0 )
1-
12
17
1;
1?
1E
1K
1Q
1W
1^
1l
1q
#56000
0$
b0 (!
b100010001010010111111111111111111111111100111001111111111111111111111111000000000110000011110000011000000110000 )!
0*
0@
0`
#60000
0!
0!!
0"!
b0 #
0#!
0'
b0 (
0-
b0 /
02
b0 4
07
b0 8
0;
b0 <
0?
b0 A
0E
b0 G
0K
b0 M
0Q
b0 S
0W
b0 Y
0^
b0 _
0l
b0 n
0q
b0 r
0x
0y
0z
0{
0|
0}
0~
#65000
1!
b10010001101000101011001111000 &
1'
b10010001101000101011001111000 )
1-
12
17
1;
1?
1E
1K
1Q
1W
1^
b10010001101000101011001111000 b
b10010001101000101011001111000 c
1l
1q
#66000
b100 (!
b100010001010010111111111111111111111111100111001111111111111111111111111000000000110000011110000011000000110100 )!
#70000
0!
0!!
b100 #
0'
b100 (
0-
b100 /
02
b100 4
07
b100 8
0;
b100 <
0?
b100 A
0E
b100 G
0K
b100 M
0Q
b100 S
0W
b100 Y
0^
b100 _
0l
b100 n
0q
b1 r
0x
0y
0z
0{
#75000
1!
b10101011110011011110111100000000 &
1'
b10101011110011011110111100000000 )
1-
12
17
1;
1?
1E
1K
1Q
1W
1^
b10101011110011011110111100000000 b
b10101011110011011110111100000000 c
1l
1q
#76000
b100000000 (!
b10001000101001001000001111111111111111111111111101100001111111111111111100000000011000001111000001100010011000000110000 )!
#80000
0!
0!!
0"!
b100000000 #
0#!
0'
b100000000 (
0-
b100000000 /
02
b100000000 4
07
b100000000 8
0;
b100000000 <
0?
b100000000 A
0E
b100000000 G
0K
b100000000 M
0Q
b100000000 S
0W
b100000000 Y
0^
b100000000 _
0l
b100000000 n
0q
b1000000 r
0x
0y
0z
0{
0|
0}
0~
#85000
1!
b11011110101011011011111011101111 &
1'
b11011110101011011011111011101111 )
1-
12
17
1;
1?
1E
1K
1Q
1W
1^
b11011110101011011011111011101111 b
b11011110101011011011111011101111 c
1l
1q
#86000
b11111111111111111111110000000000 %!
b1001000110100 &!
b111111111111111111111111111001101111111111111111111111111010000011111111111111111111111110100001 '!
#90000
0!
0!!
0"!
b11111111111111111111110000000000 #
0#!
1$
b1000000000 $!
b1001000110100 %
b0 &
0'
b11111111111111111111110000000000 (
0*
b1001000110100 +
0-
1.
b11111111111111111111110000000000 /
b1001000110100 0
02
b11111111111111111111110000000000 4
b1001000110100 5
07
b11111111111111111111110000000000 8
0;
b11111111111111111111110000000000 <
0?
1@
b11111111111111111111110000000000 A
b1001000110100 B
0E
b11111111111111111111110000000000 G
b1001000110100 H
0K
b11111111111111111111110000000000 M
b1001000110100 N
0Q
b11111111111111111111110000000000 S
b1001000110100 T
0W
b11111111111111111111110000000000 Y
b1001000110100 Z
0^
b11111111111111111111110000000000 _
1`
b1001000110100 a
b0 b
0l
b11111111111111111111110000000000 n
b1001000110100 o
0q
b111100000000 r
b1001000110100 s
0v
0w
1x
0y
0z
0{
0|
0}
0~
#95000
1!
1'
b10010001101000101011001111000 )
1-
12
17
1;
1?
1E
1K
1Q
1W
1^
b0 b
b10010001101000101011001111000 c
1l
1q
#96000
0$
b11111111111111111111110001100000 %!
b11111111 &!
b10011000100010111111111111111111111111110101111 '!
0.
0@
0`
#100000
0!
0!!
0"!
b11111111111111111111110001100000 #
0#!
1$
b100000000 $!
b11111111 %
0'
b11111111111111111111110001100000 (
b11111111 +
0-
0.
b11111111111111111111110001100000 /
b11111111 0
02
13
b11111111111111111111110001100000 4
b11111111 5
07
b11111111111111111111110001100000 8
0;
b11111111111111111111110001100000 <
0?
1@
b11111111111111111111110001100000 A
b11111111 B
0E
b11111111111111111111110001100000 G
b11111111 H
0K
b11111111111111111111110001100000 M
b11111111 N
0Q
b11111111111111111111110001100000 S
b11111111 T
0W
b11111111111111111111110001100000 Y
b11111111 Z
0^
b11111111111111111111110001100000 _
1`
b11111111 a
b0 b
0l
b11111111111111111111110001100000 n
b11111111 o
0q
b111100011000 r
b11111111 s
0x
1y
0z
0{
0|
0}
0~
#105000
1!
1'
b0 )
1-
12
17
1;
1?
1E
1K
1Q
1W
1^
b0 b
b0 c
1l
1q
#106000
0$
b11111111111111111111110000100000 %!
b1111111111111111 &!
b111111111111111111111111101011101111111111111111111111111011011011111111111111111010100000110000 '!
03
0@
0`
#110000
0!
0!!
0"!
b11111111111111111111110000100000 #
0#!
1$
b100000 $!
b1111111111111111 %
b1001000110100 &
0'
b11111111111111111111110000100000 (
b1111111111111111 +
0-
b11111111111111111111110000100000 /
b1111111111111111 0
02
03
b11111111111111111111110000100000 4
b1111111111111111 5
07
b11111111111111111111110000100000 8
0;
b11111111111111111111110000100000 <
0?
1@
b11111111111111111111110000100000 A
b1111111111111111 B
0E
b11111111111111111111110000100000 G
b1111111111111111 H
0K
b11111111111111111111110000100000 M
b1111111111111111 N
0Q
b11111111111111111111110000100000 S
b1111111111111111 T
0W
b11111111111111111111110000100000 Y
b1111111111111111 Z
0^
b11111111111111111111110000100000 _
1`
b1111111111111111 a
b1001000110100 b
0l
b11111111111111111111110000100000 n
b1111111111111111 o
0q
b111100001000 r
b1111111111111111 s
0x
0y
0z
0{
1|
0}
0~
#115000
1!
1'
b0 )
1-
12
17
1;
1?
1E
1K
1Q
1W
1^
1l
1q
#116000
0$
b11111111111111111111110000011000 %!
b1 &!
b111111111111111111111111111001111111111111111111111111111000111011111111111111111111111110110110 '!
0@
0`
#120000
0!
0!!
0"!
b11111111111111111111110000011000 #
0#!
1$
b10000 $!
b1 %
b1 &
0'
b11111111111111111111110000011000 (
b1 +
0-
b11111111111111111111110000011000 /
b1 0
02
b11111111111111111111110000011000 4
b1 5
07
b11111111111111111111110000011000 8
0;
b11111111111111111111110000011000 <
0?
1@
b11111111111111111111110000011000 A
b1 B
0E
1F
b11111111111111111111110000011000 G
b1 H
0K
b11111111111111111111110000011000 M
b1 N
0Q
b11111111111111111111110000011000 S
b1 T
0W
b11111111111111111111110000011000 Y
b1 Z
0^
b11111111111111111111110000011000 _
1`
b1 a
b1 b
0l
b11111111111111111111110000011000 n
b1 o
0q
b111100000110 r
b1 s
0x
0y
0z
0{
0|
1}
0~
#125000
1!
1'
b0 )
1-
12
17
1;
1?
1E
1K
1Q
1W
1^
1l
1q
#126000
0$
b11111111111111111111110000110000 %!
b1000000000 &!
b10100000101011101001101 '!
0@
0F
0`
#130000
0!
0!!
0"!
b11111111111111111111110000110000 #
0#!
1$
b1000 $!
b1000000000 %
b100000000 &
0'
b11111111111111111111110000110000 (
b1000000000 +
0-
b11111111111111111111110000110000 /
b1000000000 0
02
b11111111111111111111110000110000 4
b1000000000 5
07
b11111111111111111111110000110000 8
0;
b11111111111111111111110000110000 <
0?
1@
b11111111111111111111110000110000 A
b1000000000 B
0E
0F
b11111111111111111111110000110000 G
b1000000000 H
0K
1L
b11111111111111111111110000110000 M
b1000000000 N
0Q
b11111111111111111111110000110000 S
b1000000000 T
0W
b11111111111111111111110000110000 Y
b1000000000 Z
0^
b11111111111111111111110000110000 _
1`
b1000000000 a
b100000000 b
0l
b11111111111111111111110000110000 n
b1000000000 o
0q
b111100001100 r
b1000000000 s
0x
0y
0z
0{
0|
0}
1~
#135000
1!
1'
b0 )
1-
12
17
1;
1?
1E
1K
1Q
1W
1^
1l
1q
#136000
0$
b11111111111111111111110001010000 %!
b1 &!
b111111111111111111111111111001111111111111111111111111111001011111111111111111111111111110010111 '!
0@
0L
0`
#140000
0!
1!!
0"!
b11111111111111111111110001010000 #
0#!
1$
b100 $!
b1 %
b1100101011111110 &
0'
b11111111111111111111110001010000 (
b1 +
0-
b11111111111111111111110001010000 /
b1 0
02
b11111111111111111111110001010000 4
b1 5
07
b11111111111111111111110001010000 8
0;
b11111111111111111111110001010000 <
0?
1@
b11111111111111111111110001010000 A
b1 B
0E
b11111111111111111111110001010000 G
b1 H
0K
0L
b11111111111111111111110001010000 M
b1 N
0Q
1R
b11111111111111111111110001010000 S
b1 T
0W
b11111111111111111111110001010000 Y
b1 Z
0^
b11111111111111111111110001010000 _
1`
b1 a
b1100101011111110 b
0l
b11111111111111111111110001010000 n
b1 o
0q
b111100010100 r
b1 s
0x
0y
0z
0{
0|
0}
0~
#145000
1!
1'
b0 )
1-
12
17
1;
1?
1E
1K
1Q
1W
1^
1l
1q
#146000
0$
b11111111111111111111110001000000 %!
b1000001 &!
b1010101010000010101001001010100 '!
0@
0R
0`
#150000
0!
0!!
1"!
b11111111111111111111110001000000 #
0#!
1$
b10 $!
b1000001 %
b11111111 &
0'
b11111111111111111111110001000000 (
b1000001 +
0-
b11111111111111111111110001000000 /
b1000001 0
02
b11111111111111111111110001000000 4
b1000001 5
07
b11111111111111111111110001000000 8
0;
b11111111111111111111110001000000 <
0?
1@
b11111111111111111111110001000000 A
b1000001 B
0E
b11111111111111111111110001000000 G
b1000001 H
0K
b11111111111111111111110001000000 M
b1000001 N
0Q
0R
b11111111111111111111110001000000 S
b1000001 T
0W
1X
b11111111111111111111110001000000 Y
b1000001 Z
0^
b11111111111111111111110001000000 _
1`
b1000001 a
b11111111 b
0l
b11111111111111111111110001000000 n
b1000001 o
0q
b111100010000 r
b1000001 s
0x
0y
0z
0{
0|
0}
0~
#155000
1!
1'
b0 )
1-
12
17
1;
1?
1E
1K
1Q
1W
1^
1l
1q
#156000
0$
b11111111111111111111110001110000 (!
b1111111111111111111111111011110011111111111111111111111110110011 )!
0@
0X
0`
#160000
0!
0!!
0"!
b11111111111111111111110001110000 #
0#!
b10000000 $!
b10101010 &
0'
b11111111111111111111110001110000 (
0-
b11111111111111111111110001110000 /
02
b11111111111111111111110001110000 4
07
b11111111111111111111110001110000 8
0;
b11111111111111111111110001110000 <
0?
b11111111111111111111110001110000 A
0E
b11111111111111111111110001110000 G
0K
b11111111111111111111110001110000 M
0Q
b11111111111111111111110001110000 S
0W
b11111111111111111111110001110000 Y
0^
b11111111111111111111110001110000 _
b10101010 b
0l
b11111111111111111111110001110000 n
0q
b111100011100 r
0x
0y
1z
0{
0|
0}
0~
#165000
1!
1'
b0 )
1-
12
17
1;
1?
1E
1K
1Q
1W
1^
1l
1q
#166000
b11111111111111111111110001111000 (!
b1111111111111111111111111000110011111111111111111111111110101110 )!
#170000
0!
0!!
b11111111111111111111110001111000 #
b1000000 $!
b101 &
0'
b11111111111111111111110001111000 (
0-
b11111111111111111111110001111000 /
02
b11111111111111111111110001111000 4
07
b11111111111111111111110001111000 8
0;
b11111111111111111111110001111000 <
0?
b11111111111111111111110001111000 A
0E
b11111111111111111111110001111000 G
0K
b11111111111111111111110001111000 M
0Q
b11111111111111111111110001111000 S
0W
b11111111111111111111110001111000 Y
0^
b11111111111111111111110001111000 _
b101 b
0l
b11111111111111111111110001111000 n
0q
b111100011110 r
0x
0y
0z
1{
#175000
1!
1'
b0 )
1-
12
17
1;
1?
1E
1K
1Q
1W
1^
1l
1q
#176000
b11111111111111111111110000100000 (!
b111111111111111111111111101011101111111111111111111111111011011011111111111111111010100000110000 )!
#180000
0!
0!!
0"!
b11111111111111111111110000100000 #
0#!
b100000 $!
b1001000110100 &
0'
b11111111111111111111110000100000 (
0-
b11111111111111111111110000100000 /
02
b11111111111111111111110000100000 4
07
b11111111111111111111110000100000 8
0;
b11111111111111111111110000100000 <
0?
b11111111111111111111110000100000 A
0E
b11111111111111111111110000100000 G
0K
b11111111111111111111110000100000 M
0Q
b11111111111111111111110000100000 S
0W
b11111111111111111111110000100000 Y
0^
b11111111111111111111110000100000 _
b1001000110100 b
0l
b11111111111111111111110000100000 n
0q
b111100001000 r
0x
0y
0z
0{
1|
0}
0~
#185000
1!
1'
b0 )
1-
12
17
1;
1?
1E
1K
1Q
1W
1^
1l
1q
#186000
b11111111111111111111110000010000 (!
b111111111111111111111111111001111111111111111111111111111001010111111111111111111111111110101110 )!
#190000
0!
0!!
0"!
b11111111111111111111110000010000 #
0#!
b10000 $!
b1 &
0'
b11111111111111111111110000010000 (
0-
b11111111111111111111110000010000 /
02
b11111111111111111111110000010000 4
07
b11111111111111111111110000010000 8
0;
b11111111111111111111110000010000 <
0?
b11111111111111111111110000010000 A
0E
b11111111111111111111110000010000 G
0K
b11111111111111111111110000010000 M
0Q
b11111111111111111111110000010000 S
0W
b11111111111111111111110000010000 Y
0^
b11111111111111111111110000010000 _
b1 b
0l
b11111111111111111111110000010000 n
0q
b111100000100 r
0x
0y
0z
0{
0|
1}
0~
#195000
1!
1'
b0 )
1-
12
17
1;
1?
1E
1K
1Q
1W
1^
1l
1q
#196000
b11111111111111111111110000110000 (!
b10100000101011101001101 )!
#200000
0!
0!!
0"!
b11111111111111111111110000110000 #
0#!
b1000 $!
b100000000 &
0'
b11111111111111111111110000110000 (
0-
b11111111111111111111110000110000 /
02
b11111111111111111111110000110000 4
07
b11111111111111111111110000110000 8
0;
b11111111111111111111110000110000 <
0?
b11111111111111111111110000110000 A
0E
b11111111111111111111110000110000 G
0K
b11111111111111111111110000110000 M
0Q
b11111111111111111111110000110000 S
0W
b11111111111111111111110000110000 Y
0^
b11111111111111111111110000110000 _
b100000000 b
0l
b11111111111111111111110000110000 n
0q
b111100001100 r
0x
0y
0z
0{
0|
0}
1~
#205000
1!
1'
b0 )
1-
12
17
1;
1?
1E
1K
1Q
1W
1^
1l
1q
#206000
b11111111111111111111110001010000 (!
b111111111111111111111111111001111111111111111111111111111001011111111111111111111111111110010111 )!
#210000
0!
1!!
0"!
b11111111111111111111110001010000 #
0#!
b100 $!
b1100101011111110 &
0'
b11111111111111111111110001010000 (
0-
b11111111111111111111110001010000 /
02
b11111111111111111111110001010000 4
07
b11111111111111111111110001010000 8
0;
b11111111111111111111110001010000 <
0?
b11111111111111111111110001010000 A
0E
b11111111111111111111110001010000 G
0K
b11111111111111111111110001010000 M
0Q
b11111111111111111111110001010000 S
0W
b11111111111111111111110001010000 Y
0^
b11111111111111111111110001010000 _
b1100101011111110 b
0l
b11111111111111111111110001010000 n
0q
b111100010100 r
0x
0y
0z
0{
0|
0}
0~
#215000
1!
1'
b0 )
1-
12
17
1;
1?
1E
1K
1Q
1W
1^
1l
1q
#216000
b11111111111111111111110001000000 (!
b1010101010000010101001001010100 )!
#220000
0!
0!!
1"!
b11111111111111111111110001000000 #
0#!
b10 $!
b11111111 &
0'
b11111111111111111111110001000000 (
0-
b11111111111111111111110001000000 /
02
b11111111111111111111110001000000 4
07
b11111111111111111111110001000000 8
0;
b11111111111111111111110001000000 <
0?
b11111111111111111111110001000000 A
0E
b11111111111111111111110001000000 G
0K
b11111111111111111111110001000000 M
0Q
b11111111111111111111110001000000 S
0W
b11111111111111111111110001000000 Y
0^
b11111111111111111111110001000000 _
b11111111 b
0l
b11111111111111111111110001000000 n
0q
b111100010000 r
0x
0y
0z
0{
0|
0}
0~
#225000
1!
1'
b0 )
1-
12
17
1;
1?
1E
1K
1Q
1W
1^
1l
1q
#226000
b11111111111111111111101111111111 %!
b10101010101010101010101010101010 &!
b111111111111111111111111111001011111111111111111111111111010111011111111111111111111111110111001111111111111111111111111111001001111111110001011001010000100010001010010010000010100110100101001 '!
#230000
0!
0!!
0"!
b11111111111111111111101111111111 #
0#!
1$
b0 $!
b10101010101010101010101010101010 %
b11111111111111111111111111111111 &
0'
b11111111111111111111101111111111 (
b10101010101010101010101010101010 +
0-
b11111111111111111111101111111111 /
b10101010101010101010101010101010 0
02
b11111111111111111111101111111111 4
b10101010101010101010101010101010 5
07
b11111111111111111111101111111111 8
0;
b11111111111111111111101111111111 <
0?
1@
b11111111111111111111101111111111 A
b10101010101010101010101010101010 B
0E
b11111111111111111111101111111111 G
b10101010101010101010101010101010 H
0K
b11111111111111111111101111111111 M
b10101010101010101010101010101010 N
0Q
b11111111111111111111101111111111 S
b10101010101010101010101010101010 T
0W
0X
b11111111111111111111101111111111 Y
b10101010101010101010101010101010 Z
0^
b11111111111111111111101111111111 _
1`
b10101010101010101010101010101010 a
b11111111111111111111111111111111 b
0l
b11111111111111111111101111111111 n
b10101010101010101010101010101010 o
0q
b111011111111 r
b10101010101010101010101010101010 s
0x
0y
0z
0{
0|
0}
0~
#235000
1!
1'
b0 )
1-
12
17
1;
1?
1E
1K
1Q
1W
1^
1l
1q
#236000
0$
b11111111111111111111101111111111 (!
b11111111111111111111111110010110111111111111111111111111111010001111111111111111111111111001010111111111111111111111111110001011 )!
0@
0`
#240000
0!
b11111111111111111111101111111111 #
0'
0-
02
07
0;
0?
0E
0K
0Q
0W
0^
0l
0q
#245000
1!
1'
b0 )
1-
12
17
1;
1?
1E
1K
1Q
1W
1^
1l
1q
#246000
b11111111111111111111111111111111 (!
b11111111111111111111111110101010111111111111111111111111111001011111111111111111111111111001110011111111111111111111111110000000 )!
#250000
0!
0!!
0"!
b11111111111111111111111111111111 #
0#!
0'
b11111111111111111111111111111111 (
0-
b11111111111111111111111111111111 /
02
b11111111111111111111111111111111 4
07
b11111111111111111111111111111111 8
0;
b11111111111111111111111111111111 <
0?
b11111111111111111111111111111111 A
0E
b11111111111111111111111111111111 G
0K
b11111111111111111111111111111111 M
0Q
b11111111111111111111111111111111 S
0W
b11111111111111111111111111111111 Y
0^
b11111111111111111111111111111111 _
0l
b11111111111111111111111111111111 n
0q
b111111111111 r
0x
0y
0z
0{
0|
0}
0~
#255000
1!
1'
b0 )
1-
12
17
1;
1?
1E
1K
1Q
1W
1^
1l
1q
#260000
0!
0'
0-
02
07
0;
0?
0E
0K
0Q
0W
0^
0l
0q
#265000
1!
1'
b0 )
1-
12
17
1;
1?
1E
1K
1Q
1W
1^
1l
1q
#270000
0!
0'
0-
02
07
0;
0?
0E
0K
0Q
0W
0^
0l
0q
#275000
1!
1'
b0 )
1-
12
17
1;
1?
1E
1K
1Q
1W
1^
1l
1q
#280000
0!
0'
0-
02
07
0;
0?
0E
0K
0Q
0W
0^
0l
0q
#285000
1!
1'
b0 )
1-
12
17
1;
1?
1E
1K
1Q
1W
1^
1l
1q
#290000
0!
0'
0-
02
07
0;
0?
0E
0K
0Q
0W
0^
0l
0q
#295000
1!
1'
b0 )
1-
12
17
1;
1?
1E
1K
1Q
1W
1^
1l
1q
